{
	"ABI version": 2,
	"header": ["pubkey", "time", "expire"],
	"functions": [
		{
			"name": "constructor",
			"inputs": [
				{"name":"merge_expiration_date","type":"uint64"},
				{"name":"nreqs","type":"uint8"},
				{"name":"relays","type":"uint256[]"},
				{"name":"indexes","type":"uint8[]"},
				{"name":"event_address","type":"address"},
				{"name":"swap_expiration_time","type":"uint64"},
				{"name":"deployer_pubkey","type":"uint256"}
			],
			"outputs": [
			]
		},
		{
			"name": "confirmOrder",
			"inputs": [
				{"name":"order_id","type":"bytes"},
				{"name":"hashed_secret","type":"uint256"},
				{"name":"ton_amount","type":"uint64"},
				{"name":"dest","type":"address"},
				{"name":"depool","type":"address"},
				{"name":"swap_expiration_date","type":"uint64"}
			],
			"outputs": [
			]
		},
		{
			"name": "requestCredit",
			"inputs": [
			],
			"outputs": [
			]
		},
		{
			"name": "revealOrderSecret",
			"inputs": [
				{"name":"secret","type":"bytes"}
			],
			"outputs": [
			]
		},
		{
			"name": "transferOrder",
			"inputs": [
			],
			"outputs": [
			]
		},
		{
			"name": "cancelOrder",
			"inputs": [
			],
			"outputs": [
			]
		},
		{
			"name": "receiveCredit",
			"inputs": [
			],
			"outputs": [
			]
		},
		{
			"name": "creditDenied",
			"inputs": [
			],
			"outputs": [
			]
		},
		{
			"name": "closeSwap",
			"inputs": [
			],
			"outputs": [
			]
		},
		{
			"name": "receiveAnswer",
			"inputs": [
				{"name":"errcode","type":"uint32"},
				{"name":"value1","type":"uint64"}
			],
			"outputs": [
			]
		},
		{
			"name": "updateRelays",
			"inputs": [
				{"name":"relays","type":"uint256[]"},
				{"name":"indexes","type":"uint8[]"},
				{"name":"nreqs","type":"uint8"}
			],
			"outputs": [
			]
		},
		{
			"name": "get",
			"inputs": [
			],
			"outputs": [
				{"name":"nreqs","type":"uint8"},
				{"name":"relays","type":"uint256[]"},
				{"name":"indexes","type":"uint8[]"},
				{"name":"root_address","type":"address"},
				{"name":"giver_address","type":"address"},
				{"name":"event_address","type":"address"},
				{"name":"merge_expiration_date","type":"uint64"},
				{"name":"swap_hash","type":"uint256"},
				{"name":"order_id","type":"bytes"},
				{"name":"hashed_secret","type":"uint256"},
				{"name":"ton_amount","type":"uint64"},
				{"name":"dest","type":"address"},
				{"name":"depool","type":"address"},
				{"name":"swap_expiration_date","type":"uint64"}
			]
		},
		{
			"name": "getOrderRemainingTime",
			"inputs": [
			],
			"outputs": [
				{"name":"remaining_time","type":"uint64"}
			]
		},
		{
			"name": "getSwapHash",
			"inputs": [
				{"name":"pubkey","type":"uint256"},
				{"name":"order_id","type":"bytes"},
				{"name":"hashed_secret","type":"uint256"},
				{"name":"ton_amount","type":"uint64"},
				{"name":"dest","type":"address"},
				{"name":"depool","type":"address"},
				{"name":"swap_expiration_date","type":"uint64"}
			],
			"outputs": [
				{"name":"swap_hash","type":"uint256"}
			]
		},
		{
			"name": "getTime",
			"inputs": [
			],
			"outputs": [
				{"name":"time","type":"uint64"}
			]
		},
		{
			"name": "g_nreqs",
			"inputs": [
			],
			"outputs": [
				{"name":"g_nreqs","type":"uint8"}
			]
		},
		{
			"name": "g_relays",
			"inputs": [
			],
			"outputs": [
				{"name":"g_relays","type":"map(uint256,uint8)"}
			]
		},
		{
			"name": "g_event_address",
			"inputs": [
			],
			"outputs": [
				{"name":"g_event_address","type":"address"}
			]
		},
		{
			"name": "g_merge_expiration_date",
			"inputs": [
			],
			"outputs": [
				{"name":"g_merge_expiration_date","type":"uint64"}
			]
		},
		{
			"name": "g_swap_expiration_time",
			"inputs": [
			],
			"outputs": [
				{"name":"g_swap_expiration_time","type":"uint64"}
			]
		}
	],
	"data": [
		{"key":1,"name":"s_giver_address","type":"address"},
		{"key":2,"name":"s_root_address","type":"address"},
		{"key":3,"name":"s_swap_hash","type":"uint256"}
	],
	"events": [
		{
			"name": "OrderStateChanged",
			"inputs": [
				{"name":"state","type":"uint8"}
			],
			"outputs": [
			]
		},
		{
			"name": "OrderRevealed",
			"inputs": [
				{"name":"secret","type":"bytes"}
			],
			"outputs": [
			]
		}
	]
}
