{
	"ABI version": 2,
	"header": ["pubkey", "time", "expire"],
	"functions": [
		{
			"name": "constructor",
			"inputs": [
				{"name":"freeton_giver","type":"address"}
			],
			"outputs": [
			]
		},
		{
			"name": "init",
			"inputs": [
				{"name":"root_address","type":"address"},
				{"name":"event_address","type":"address"},
				{"name":"root_value","type":"uint64"}
			],
			"outputs": [
			]
		},
		{
			"name": "setSwapInfo",
			"inputs": [
				{"name":"duneUserSwapCode","type":"cell"},
				{"name":"merge_expiration_date","type":"uint64"},
				{"name":"swap_expiration_time","type":"uint64"}
			],
			"outputs": [
			]
		},
		{
			"name": "creditOrder",
			"inputs": [
				{"name":"order_id","type":"bytes"},
				{"name":"swap_hash","type":"uint256"},
				{"name":"ton_amount","type":"uint128"},
				{"name":"pubkey","type":"uint256"}
			],
			"outputs": [
			]
		},
		{
			"name": "closeSwap",
			"inputs": [
			],
			"outputs": [
			]
		},
		{
			"name": "get",
			"inputs": [
			],
			"outputs": [
				{"name":"root_address","type":"address"},
				{"name":"giver_address","type":"address"},
				{"name":"event_address","type":"address"},
				{"name":"merge_expiration_date","type":"uint64"},
				{"name":"swap_expiration_time","type":"uint64"},
				{"name":"freeton_giver","type":"address"}
			]
		},
		{
			"name": "getSwapHash",
			"inputs": [
				{"name":"pubkey","type":"uint256"},
				{"name":"order_id","type":"bytes"},
				{"name":"hashed_secret","type":"uint256"},
				{"name":"ton_amount","type":"uint64"},
				{"name":"dest","type":"address"},
				{"name":"depool","type":"address"},
				{"name":"swap_expiration_date","type":"uint64"}
			],
			"outputs": [
				{"name":"swap_hash","type":"uint256"}
			]
		},
		{
			"name": "getTime",
			"inputs": [
			],
			"outputs": [
				{"name":"time","type":"uint64"}
			]
		},
		{
			"name": "getUserSwapAddress",
			"inputs": [
				{"name":"pubkey","type":"uint256"},
				{"name":"swap_hash","type":"uint256"}
			],
			"outputs": [
				{"name":"addr","type":"address"}
			]
		},
		{
			"name": "remainingTime",
			"inputs": [
			],
			"outputs": [
				{"name":"remaining_time","type":"uint64"}
			]
		},
		{
			"name": "g_root_address",
			"inputs": [
			],
			"outputs": [
				{"name":"g_root_address","type":"address"}
			]
		},
		{
			"name": "g_giver_address",
			"inputs": [
			],
			"outputs": [
				{"name":"g_giver_address","type":"address"}
			]
		},
		{
			"name": "g_duneUserSwapCode",
			"inputs": [
			],
			"outputs": [
				{"name":"g_duneUserSwapCode","type":"cell"}
			]
		},
		{
			"name": "g_merge_expiration_date",
			"inputs": [
			],
			"outputs": [
				{"name":"g_merge_expiration_date","type":"uint64"}
			]
		},
		{
			"name": "g_event_address",
			"inputs": [
			],
			"outputs": [
				{"name":"g_event_address","type":"address"}
			]
		},
		{
			"name": "g_freeton_giver",
			"inputs": [
			],
			"outputs": [
				{"name":"g_freeton_giver","type":"address"}
			]
		},
		{
			"name": "g_swap_expiration_time",
			"inputs": [
			],
			"outputs": [
				{"name":"g_swap_expiration_time","type":"uint64"}
			]
		}
	],
	"data": [
	],
	"events": [
		{
			"name": "OrderCredited",
			"inputs": [
				{"name":"order_id","type":"bytes"},
				{"name":"pubkey","type":"uint256"},
				{"name":"ton_amount","type":"uint128"}
			],
			"outputs": [
			]
		}
	]
}
