{
	"ABI version": 2,
	"header": ["pubkey", "time", "expire"],
	"functions": [
		{
			"name": "constructor",
			"inputs": [
			],
			"outputs": [
			]
		},
		{
			"name": "addVestingStake",
			"inputs": [
				{"name":"stake","type":"uint64"},
				{"name":"beneficiary","type":"address"},
				{"name":"value2","type":"uint32"},
				{"name":"value3","type":"uint32"}
			],
			"outputs": [
			]
		},
		{
			"name": "setVestingDonor",
			"inputs": [
				{"name":"donor","type":"address"}
			],
			"outputs": [
			]
		},
		{
			"name": "g_donor",
			"inputs": [
			],
			"outputs": [
				{"name":"g_donor","type":"address"}
			]
		},
		{
			"name": "g_participant",
			"inputs": [
			],
			"outputs": [
				{"name":"g_participant","type":"address"}
			]
		},
		{
			"name": "n_errors",
			"inputs": [
			],
			"outputs": [
				{"name":"n_errors","type":"uint32"}
			]
		}
	],
	"data": [
	],
	"events": [
	]
}
